[gd_scene load_steps=2 format=2]

[ext_resource path="res://scripts/items/healing.gd" type="Script" id=1]

[node name="Items" type="Node"]

[node name="red_gelly" type="Node" parent="."]
script = ExtResource( 1 )
item_name = "Red Gelly"
description = "Heals a small amount"
category = "Restoration"
cost = 10
amount = 0.25

[node name="pink_gelly" type="Node" parent="."]
script = ExtResource( 1 )
item_name = "Pink Gelly"
description = "Heals a lot of HP"
category = "Restoration"
cost = 100
amount = 0.75
