[gd_scene load_steps=3 format=2]

[ext_resource path="res://GotoPanel.tscn" type="PackedScene" id=1]
[ext_resource path="res://SwitchScreen.gd" type="Script" id=2]

[node name="Node" type="Node"]

[node name="GUILayer" type="CanvasLayer" parent="."]

[node name="HBoxContainer" type="HBoxContainer" parent="GUILayer"]
anchor_right = 1.0
anchor_bottom = 1.0
margin_left = 20.0
margin_top = 20.0
margin_right = -20.0
margin_bottom = -20.0
custom_constants/separation = 15
__meta__ = {
"_edit_use_anchors_": false
}

[node name="VBoxContainer" type="VBoxContainer" parent="GUILayer/HBoxContainer"]
margin_right = 470.0
margin_bottom = 420.0
size_flags_horizontal = 3
size_flags_stretch_ratio = 5.0

[node name="TrainingAreaName" type="Label" parent="GUILayer/HBoxContainer/VBoxContainer"]
margin_right = 470.0
margin_bottom = 14.0
text = "Mines"
align = 1
uppercase = true

[node name="HSeparator" type="HSeparator" parent="GUILayer/HBoxContainer/VBoxContainer"]
margin_top = 18.0
margin_right = 470.0
margin_bottom = 22.0

[node name="Results" type="Label" parent="GUILayer/HBoxContainer/VBoxContainer"]
margin_top = 26.0
margin_right = 470.0
margin_bottom = 396.0
size_flags_vertical = 7
text = "You gained:

stuff!"
align = 1

[node name="Button" type="Button" parent="GUILayer/HBoxContainer/VBoxContainer"]
margin_top = 400.0
margin_right = 470.0
margin_bottom = 420.0
text = "BACK"
script = ExtResource( 2 )
scene = "res://screens/training.tscn"

[node name="GotoPanel" parent="GUILayer/HBoxContainer" instance=ExtResource( 1 )]
anchor_right = 0.0
anchor_bottom = 0.0
margin_left = 485.0
margin_right = 580.0
margin_bottom = 420.0
size_flags_horizontal = 3
size_flags_vertical = 3
